The Twitter Analysis: Elon Musk and Tim Cook
…
## Warning in as.POSIXlt.POSIXct(x, tz = tz(x)): unknown timezone 'PST'

#adding a variable of total sentiment of tweet
predictingtree <- predictingtree %>%
    unnest_tokens(word, text, token = "tweets") %>%
    inner_join(get_sentiments("afinn")) #using afinn dictionary (sentiments range from -5 to 5)

## Using `to_lower = TRUE` with `token = 'tweets'` may not preserve URLs.

## Joining, by = "word"

predictingtree

## # A tibble: 3,835 x 11
##         id source created_at          favorite_count retweet_count user  picture
##      <dbl> <chr>  <dttm>                       <dbl>         <dbl> <chr> <chr>  
##  1 1.38e18 Twitt… 2021-04-11 15:48:58          71696          1528 Elon  No pic…
##  2 1.38e18 Twitt… 2021-04-11 15:48:58          71696          1528 Elon  No pic…
##  3 1.38e18 Twitt… 2021-04-11 14:49:38           1394            48 Elon  No pic…
##  4 1.38e18 Twitt… 2021-04-10 23:56:43           2542            65 Elon  No pic…
##  5 1.38e18 Twitt… 2021-04-10 23:54:51           2631           202 Elon  No pic…
##  6 1.38e18 Twitt… 2021-04-10 19:49:26           4606           154 Elon  No pic…
##  7 1.38e18 Twitt… 2021-04-10 19:46:36           8486           221 Elon  No pic…
##  8 1.38e18 Twitt… 2021-04-10 08:32:35           2313           114 Elon  No pic…
##  9 1.38e18 Twitt… 2021-04-10 08:23:03           3302           262 Elon  No pic…
## 10 1.38e18 Twitt… 2021-04-10 08:23:03           3302           262 Elon  No pic…
## # … with 3,825 more rows, and 4 more variables: pic_binary <dbl>, hour <int>,
## #   word <chr>, value <dbl>
…
## Warning in as.POSIXlt.POSIXct(x, tz = tz(x)): unknown timezone 'PST'

#adding a variable of total sentiment of tweet
other_tree <- other_tree %>%
    unnest_tokens(word, text, token = "tweets") %>%
    inner_join(get_sentiments("afinn")) #using afinn dictionary (sentiments range from -5 to 5)

## Using `to_lower = TRUE` with `token = 'tweets'` may not preserve URLs.

## Joining, by = "word"

other_tree

## # A tibble: 4,276 x 11
##         id source created_at          favorite_count retweet_count user  picture
##      <dbl> <chr>  <dttm>                       <dbl>         <dbl> <chr> <chr>  
##  1 1.38e18 Insta… 2021-04-17 01:35:41            997            52 Joe   Pictur…
##  2 1.38e18 Insta… 2021-04-07 19:24:58           1542            87 Joe   Pictur…
##  3 1.38e18 Insta… 2021-04-07 19:24:58           1542            87 Joe   Pictur…
##  4 1.38e18 Insta… 2021-04-07 19:24:58           1542            87 Joe   Pictur…
##  5 1.37e18 Insta… 2021-03-19 19:09:01            974            60 Joe   Pictur…
##  6 1.37e18 Insta… 2021-03-19 19:09:01            974            60 Joe   Pictur…
##  7 1.37e18 Insta… 2021-03-17 21:35:28            935            49 Joe   Pictur…
##  8 1.37e18 Insta… 2021-03-17 21:35:28            935            49 Joe   Pictur…
##  9 1.37e18 Insta… 2021-03-16 22:49:07            911            54 Joe   Pictur…
## 10 1.37e18 Insta… 2021-03-16 22:49:07            911            54 Joe   Pictur…
## # … with 4,266 more rows, and 4 more variables: pic_binary <dbl>, hour <int>,
## #   word <chr>, value <dbl>
…
